module neeraj.com/store-feedback

go 1.21.0

require (
	github.com/jackc/pgconn v1.14.3
	github.com/jackc/pgx/v4 v4.18.3
	github.com/planetscale/vtprotobuf v0.6.0
	github.com/stretchr/testify v1.9.0
	github.com/twitchtv/twirp v8.1.3+incompatible
	google.golang.org/grpc v1.64.0
	google.golang.org/protobuf v1.34.1
)

require (
	buf.build/gen/go/bufbuild/protovalidate/protocolbuffers/go v1.34.1-20240508200655-46a4cf4ba109.1 // indirect
	buf.build/gen/go/bufbuild/registry/connectrpc/go v1.16.1-20240514010100-299bd9c9a0c4.1 // indirect
	buf.build/gen/go/bufbuild/registry/protocolbuffers/go v1.34.1-20240514010100-299bd9c9a0c4.1 // indirect
	connectrpc.com/connect v1.16.1 // indirect
	connectrpc.com/otelconnect v0.7.0 // indirect
	github.com/Azure/go-ansiterm v0.0.0-20230124172434-306776ec8161 // indirect
	github.com/Microsoft/go-winio v0.6.1 // indirect
	github.com/antlr4-go/antlr/v4 v4.13.0 // indirect
	github.com/bufbuild/buf v1.32.1 // indirect
	github.com/bufbuild/protocompile v0.13.1-0.20240510201809-752249dfc37f // indirect
	github.com/bufbuild/protoplugin v0.0.0-20240323223605-e2735f6c31ee // indirect
	github.com/bufbuild/protovalidate-go v0.6.2 // indirect
	github.com/bufbuild/protoyaml-go v0.1.9 // indirect
	github.com/containerd/stargz-snapshotter/estargz v0.15.1 // indirect
	github.com/cpuguy83/go-md2man/v2 v2.0.4 // indirect
	github.com/davecgh/go-spew v1.1.1 // indirect
	github.com/distribution/reference v0.6.0 // indirect
	github.com/docker/cli v26.1.2+incompatible // indirect
	github.com/docker/distribution v2.8.3+incompatible // indirect
	github.com/docker/docker v26.1.2+incompatible // indirect
	github.com/docker/docker-credential-helpers v0.8.1 // indirect
	github.com/docker/go-connections v0.5.0 // indirect
	github.com/docker/go-units v0.5.0 // indirect
	github.com/felixge/fgprof v0.9.4 // indirect
	github.com/felixge/httpsnoop v1.0.4 // indirect
	github.com/go-chi/chi/v5 v5.0.12 // indirect
	github.com/go-logr/logr v1.4.1 // indirect
	github.com/go-logr/stdr v1.2.2 // indirect
	github.com/gofrs/uuid/v5 v5.2.0 // indirect
	github.com/gogo/protobuf v1.3.2 // indirect
	github.com/google/cel-go v0.20.1 // indirect
	github.com/google/go-containerregistry v0.19.1 // indirect
	github.com/google/pprof v0.0.0-20240509144519-723abb6459b7 // indirect
	github.com/inconshreveable/mousetrap v1.1.0 // indirect
	github.com/jackc/chunkreader/v2 v2.0.1 // indirect
	github.com/jackc/pgio v1.0.0 // indirect
	github.com/jackc/pgpassfile v1.0.0 // indirect
	github.com/jackc/pgproto3/v2 v2.3.3 // indirect
	github.com/jackc/pgservicefile v0.0.0-20221227161230-091c0ba34f0a // indirect
	github.com/jackc/pgtype v1.14.0 // indirect
	github.com/jdx/go-netrc v1.0.0 // indirect
	github.com/klauspost/compress v1.17.8 // indirect
	github.com/klauspost/pgzip v1.2.6 // indirect
	github.com/kr/pretty v0.3.1 // indirect
	github.com/lib/pq v1.10.9 // indirect
	github.com/mitchellh/go-homedir v1.1.0 // indirect
	github.com/moby/docker-image-spec v1.3.1 // indirect
	github.com/moby/term v0.5.0 // indirect
	github.com/morikuni/aec v1.0.0 // indirect
	github.com/opencontainers/go-digest v1.0.0 // indirect
	github.com/opencontainers/image-spec v1.1.0 // indirect
	github.com/pkg/browser v0.0.0-20240102092130-5ac0b6a4141c // indirect
	github.com/pkg/errors v0.9.1 // indirect
	github.com/pkg/profile v1.7.0 // indirect
	github.com/pmezard/go-difflib v1.0.0 // indirect
	github.com/rogpeppe/go-internal v1.10.0 // indirect
	github.com/rs/cors v1.11.0 // indirect
	github.com/russross/blackfriday/v2 v2.1.0 // indirect
	github.com/sirupsen/logrus v1.9.3 // indirect
	github.com/spf13/cobra v1.8.0 // indirect
	github.com/spf13/pflag v1.0.5 // indirect
	github.com/stoewer/go-strcase v1.3.0 // indirect
	github.com/vbatts/tar-split v0.11.5 // indirect
	go.opentelemetry.io/contrib/instrumentation/net/http/otelhttp v0.49.0 // indirect
	go.opentelemetry.io/otel v1.24.0 // indirect
	go.opentelemetry.io/otel/metric v1.24.0 // indirect
	go.opentelemetry.io/otel/sdk v1.24.0 // indirect
	go.opentelemetry.io/otel/trace v1.24.0 // indirect
	go.uber.org/atomic v1.11.0 // indirect
	go.uber.org/multierr v1.11.0 // indirect
	go.uber.org/zap v1.27.0 // indirect
	golang.org/x/crypto v0.23.0 // indirect
	golang.org/x/exp v0.0.0-20240506185415-9bf2ced13842 // indirect
	golang.org/x/mod v0.17.0 // indirect
	golang.org/x/net v0.25.0 // indirect
	golang.org/x/sync v0.7.0 // indirect
	golang.org/x/sys v0.20.0 // indirect
	golang.org/x/term v0.20.0 // indirect
	golang.org/x/text v0.15.0 // indirect
	golang.org/x/tools v0.21.0 // indirect
	google.golang.org/genproto/googleapis/api v0.0.0-20240515191416-fc5f0ca64291 // indirect
	google.golang.org/genproto/googleapis/rpc v0.0.0-20240515191416-fc5f0ca64291 // indirect
	google.golang.org/grpc/cmd/protoc-gen-go-grpc v1.2.0 // indirect
	gopkg.in/check.v1 v1.0.0-20201130134442-10cb98267c6c // indirect
	gopkg.in/yaml.v3 v3.0.1 // indirect
)
